﻿StockID,StockTypeID,StockExchangeID,Name,ISIN,Code
F8DFFF26-FF2F-E311-9EAB-000C29D7DB13,F7DFFF26-FF2F-E311-9EAB-000C29D7DB13,91F1F7FA-9658-DF11-B94C-00C09FC85DD6,Home Africa Ltd Ord1.00,KE2000007258,HAFR.O0000
B589192B-0A80-E311-A9C6-000C29D7DB13,ACE95984-F7E4-E011-8DD5-F8BB536C7A63,91F1F7FA-9658-DF11-B94C-00C09FC85DD6,CIC Insurance Group Ltd Ord.1.00,KE2000002317,CIC.O0000
1D816DB5-49A7-E211-AA69-000C29D7DB13,ACE95984-F7E4-E011-8DD5-F8BB536C7A63,91F1F7FA-9658-DF11-B94C-00C09FC85DD6,Liberty Kenya Holdings Ltd Ord.1.00,KE2000002168,CFCI.O0000
BA757914-96EB-E211-AD2F-000C29D7DB13,20CACA08-1688-DF11-8794-00C09FC85DD6,91F1F7FA-9658-DF11-B94C-00C09FC85DD6,I&M Holdings Ltd Ord 1.00,KE0000000125,I&M.O0000
D88BC188-E3AA-E111-BE43-000C29D7DB13,E0798ED7-5B8A-DF11-89DA-001C26EE1812,91F1F7FA-9658-DF11-B94C-00C09FC85DD6,Longhorn Kenya Ltd Ord 1.00 AIMS,KE2000002275,LKL.O0000
433033A4-5E8A-DF11-89DA-001C26EE1812,506B1030-1759-DF11-B92C-00C09FC85DD6,91F1F7FA-9658-DF11-B94C-00C09FC85DD6,Eaagads Ltd Ord 1.25,KE0000000208,EGAD.O0000
453033A4-5E8A-DF11-89DA-001C26EE1812,506B1030-1759-DF11-B92C-00C09FC85DD6,91F1F7FA-9658-DF11-B94C-00C09FC85DD6,Kapchorua Tea Co. Ltd Ord Ord 5.00,KE4000001760,KAPC.O0000
463033A4-5E8A-DF11-89DA-001C26EE1812,506B1030-1759-DF11-B92C-00C09FC85DD6,91F1F7FA-9658-DF11-B94C-00C09FC85DD6,The Limuru Tea Co. Ltd Ord 20.00,KE0000000356,LIMT.O0000
483033A4-5E8A-DF11-89DA-001C26EE1812,506B1030-1759-DF11-B92C-00C09FC85DD6,91F1F7FA-9658-DF11-B94C-00C09FC85DD6,Sasini Ltd Ord 1.00,KE0000000430,SASN.O0000
493033A4-5E8A-DF11-89DA-001C26EE1812,506B1030-1759-DF11-B92C-00C09FC85DD6,91F1F7FA-9658-DF11-B94C-00C09FC85DD6,Williamson Tea Kenya Ltd Ord 5.00,KE0000000505,WTK.O0000
4A3033A4-5E8A-DF11-89DA-001C26EE1812,90616DD5-1159-DF11-B92C-00C09FC85DD6,91F1F7FA-9658-DF11-B94C-00C09FC85DD6,A.Baumann Co. Ltd Ord 5.00,KE0000000018,BAUM.O0000
4B3033A4-5E8A-DF11-89DA-001C26EE1812,53F8946C-F7E4-E011-8DD5-F8BB536C7A63,91F1F7FA-9658-DF11-B94C-00C09FC85DD6,Car and General (K) Ltd Ord 5.00,KE0000000109,C&G.O0000
4C3033A4-5E8A-DF11-89DA-001C26EE1812,53F8946C-F7E4-E011-8DD5-F8BB536C7A63,91F1F7FA-9658-DF11-B94C-00C09FC85DD6,CMC Holdings Ltd Ord 0.50,KE0000000133,CMC.O0000
4D3033A4-5E8A-DF11-89DA-001C26EE1812,E0798ED7-5B8A-DF11-89DA-001C26EE1812,91F1F7FA-9658-DF11-B94C-00C09FC85DD6,Express Ltd Ord 5.00,KE0000000224,XPRS.O0000
4E3033A4-5E8A-DF11-89DA-001C26EE1812,E0798ED7-5B8A-DF11-89DA-001C26EE1812,91F1F7FA-9658-DF11-B94C-00C09FC85DD6,Hutchings Biemer Ltd Ord 5.00,KE0000000257,HBER.O0000
4F3033A4-5E8A-DF11-89DA-001C26EE1812,E0798ED7-5B8A-DF11-89DA-001C26EE1812,91F1F7FA-9658-DF11-B94C-00C09FC85DD6,Kenya Airways Ltd Ord 5.00,KE0000000307,KQ .O0000
503033A4-5E8A-DF11-89DA-001C26EE1812,53F8946C-F7E4-E011-8DD5-F8BB536C7A63,91F1F7FA-9658-DF11-B94C-00C09FC85DD6,Marshalls (E.A.) Ltd Ord 5.00,KE0000000364,MASH.O0000
513033A4-5E8A-DF11-89DA-001C26EE1812,E0798ED7-5B8A-DF11-89DA-001C26EE1812,91F1F7FA-9658-DF11-B94C-00C09FC85DD6,Nation Media Group Ord. 2.50,KE0000000380,NMG.O0000
523033A4-5E8A-DF11-89DA-001C26EE1812,E0798ED7-5B8A-DF11-89DA-001C26EE1812,91F1F7FA-9658-DF11-B94C-00C09FC85DD6,Standard Group Ltd Ord 5.00,KE0000000455,SGL.O0000
543033A4-5E8A-DF11-89DA-001C26EE1812,E0798ED7-5B8A-DF11-89DA-001C26EE1812,91F1F7FA-9658-DF11-B94C-00C09FC85DD6,Uchumi Supermarket Ltd Ord 5.00,KE0000000489,UCHM.O0000
553033A4-5E8A-DF11-89DA-001C26EE1812,20CACA08-1688-DF11-8794-00C09FC85DD6,91F1F7FA-9658-DF11-B94C-00C09FC85DD6,Barclays Bank Ltd Ord 2.00,KE0000000067,BBK.O0000
583033A4-5E8A-DF11-89DA-001C26EE1812,20CACA08-1688-DF11-8794-00C09FC85DD6,91F1F7FA-9658-DF11-B94C-00C09FC85DD6,Diamond Trust Bank Kenya Ltd Ord 4.00,KE0000000158,DTK.O0000
593033A4-5E8A-DF11-89DA-001C26EE1812,20CACA08-1688-DF11-8794-00C09FC85DD6,91F1F7FA-9658-DF11-B94C-00C09FC85DD6,Housing Finance Co Ltd Ord 5.00,KE0000000240,HFCK.O0000
5A3033A4-5E8A-DF11-89DA-001C26EE1812,C7C23F8B-F7E4-E011-8DD5-F8BB536C7A63,91F1F7FA-9658-DF11-B94C-00C09FC85DD6,Centum Investment Co Ltd Ord 0.50,KE0000000265,ICDC.O0000
5B3033A4-5E8A-DF11-89DA-001C26EE1812,ACE95984-F7E4-E011-8DD5-F8BB536C7A63,91F1F7FA-9658-DF11-B94C-00C09FC85DD6,Jubilee Holdings Ltd Ord 5.00,KE0000000273,JUB.O0000
5C3033A4-5E8A-DF11-89DA-001C26EE1812,20CACA08-1688-DF11-8794-00C09FC85DD6,91F1F7FA-9658-DF11-B94C-00C09FC85DD6,Kenya Commercial Bank Ltd Ord 1.00,KE0000000315,KCB.O0000
5D3033A4-5E8A-DF11-89DA-001C26EE1812,20CACA08-1688-DF11-8794-00C09FC85DD6,91F1F7FA-9658-DF11-B94C-00C09FC85DD6,National Bank of Kenya Ltd Ord 5.00,KE0000000398,NBK.O0000
5E3033A4-5E8A-DF11-89DA-001C26EE1812,20CACA08-1688-DF11-8794-00C09FC85DD6,91F1F7FA-9658-DF11-B94C-00C09FC85DD6,NIC Bank Ltd 0rd 5.00,KE0000000406,NIC.O0000
5F3033A4-5E8A-DF11-89DA-001C26EE1812,ACE95984-F7E4-E011-8DD5-F8BB536C7A63,91F1F7FA-9658-DF11-B94C-00C09FC85DD6,Pan Africa Insurance Holdings Ltd 0rd 5.00,KE0000000414,PAFR.O0000
603033A4-5E8A-DF11-89DA-001C26EE1812,20CACA08-1688-DF11-8794-00C09FC85DD6,91F1F7FA-9658-DF11-B94C-00C09FC85DD6,Standard Chartered Bank Ltd Ord 5.00,KE0000000448,SCBK.O0000
623033A4-5E8A-DF11-89DA-001C26EE1812,90616DD5-1159-DF11-B92C-00C09FC85DD6,91F1F7FA-9658-DF11-B94C-00C09FC85DD6,B.O.C Kenya Ltd Ord 5.00,KE0000000042,BOC.O0000
633033A4-5E8A-DF11-89DA-001C26EE1812,8099AA76-F7E4-E011-8DD5-F8BB536C7A63,91F1F7FA-9658-DF11-B94C-00C09FC85DD6,Bamburi Cement Ltd Ord 5.00,KE0000000059,BAMB.O0000
643033A4-5E8A-DF11-89DA-001C26EE1812,90616DD5-1159-DF11-B92C-00C09FC85DD6,91F1F7FA-9658-DF11-B94C-00C09FC85DD6,British American Tobacco Kenya Ltd Ord 10.00,KE0000000075,BAT.O0000
653033A4-5E8A-DF11-89DA-001C26EE1812,90616DD5-1159-DF11-B92C-00C09FC85DD6,91F1F7FA-9658-DF11-B94C-00C09FC85DD6,Carbacid Investments Ltd Ord 5.00,KE0000000117,CARB.O0000
663033A4-5E8A-DF11-89DA-001C26EE1812,8099AA76-F7E4-E011-8DD5-F8BB536C7A63,91F1F7FA-9658-DF11-B94C-00C09FC85DD6,Crown Paints  Kenya  Ltd 0rd 5.00,KE0000000141,BERG.O0000
673033A4-5E8A-DF11-89DA-001C26EE1812,C7C23F8B-F7E4-E011-8DD5-F8BB536C7A63,91F1F7FA-9658-DF11-B94C-00C09FC85DD6,Olympia Capital Holdings ltd Ord 5.00,KE0000000166,OCH.O0000
683033A4-5E8A-DF11-89DA-001C26EE1812,8099AA76-F7E4-E011-8DD5-F8BB536C7A63,91F1F7FA-9658-DF11-B94C-00C09FC85DD6,E.A.Cables Ltd Ord 0.50,KE0000000174,CABL.O0000
693033A4-5E8A-DF11-89DA-001C26EE1812,8099AA76-F7E4-E011-8DD5-F8BB536C7A63,91F1F7FA-9658-DF11-B94C-00C09FC85DD6,E.A.Portland Cement Ltd Ord 5.00,KE0000000190,PORT.O0000
6A3033A4-5E8A-DF11-89DA-001C26EE1812,90616DD5-1159-DF11-B92C-00C09FC85DD6,91F1F7FA-9658-DF11-B94C-00C09FC85DD6,East African Breweries Ltd Ord 2.00,KE0000000216,EABL.O0000
6B3033A4-5E8A-DF11-89DA-001C26EE1812,53F8946C-F7E4-E011-8DD5-F8BB536C7A63,91F1F7FA-9658-DF11-B94C-00C09FC85DD6,Sameer Africa Ltd Ord 5.00,KE0000000232,FIRE.O0000
6C3033A4-5E8A-DF11-89DA-001C26EE1812,D24EB47D-F7E4-E011-8DD5-F8BB536C7A63,91F1F7FA-9658-DF11-B94C-00C09FC85DD6,Kenol Kobil Ltd Ord 0.05,KE0000000323,KENO.O0000
6D3033A4-5E8A-DF11-89DA-001C26EE1812,D24EB47D-F7E4-E011-8DD5-F8BB536C7A63,91F1F7FA-9658-DF11-B94C-00C09FC85DD6,Kenya Power Lighting Co Ltd Ord 20.00,KE0000000349,KPLC.O0000
6E3033A4-5E8A-DF11-89DA-001C26EE1812,90616DD5-1159-DF11-B92C-00C09FC85DD6,91F1F7FA-9658-DF11-B94C-00C09FC85DD6,Mumias Sugar Co. Ltd Ord 2.00,KE0000000372,MSC.O0000
6F3033A4-5E8A-DF11-89DA-001C26EE1812,D24EB47D-F7E4-E011-8DD5-F8BB536C7A63,91F1F7FA-9658-DF11-B94C-00C09FC85DD6,Total Kenya Ltd Ord 5.00,KE0000000463,TOTL.O0000
703033A4-5E8A-DF11-89DA-001C26EE1812,90616DD5-1159-DF11-B92C-00C09FC85DD6,91F1F7FA-9658-DF11-B94C-00C09FC85DD6,Unga Group Ltd Ord 5.00,KE0000000497,UNGA.O0000
713033A4-5E8A-DF11-89DA-001C26EE1812,D24EB47D-F7E4-E011-8DD5-F8BB536C7A63,91F1F7FA-9658-DF11-B94C-00C09FC85DD6,KenGen Ltd Ord. 2.50,KE0000000547,KEGN.O0000
723033A4-5E8A-DF11-89DA-001C26EE1812,E0798ED7-5B8A-DF11-89DA-001C26EE1812,91F1F7FA-9658-DF11-B94C-00C09FC85DD6,Scangroup Ltd Ord 1.00,KE0000000562,SCAN.O0000
733033A4-5E8A-DF11-89DA-001C26EE1812,20CACA08-1688-DF11-8794-00C09FC85DD6,91F1F7FA-9658-DF11-B94C-00C09FC85DD6,Equity Bank Ltd Ord 0.50,KE0000000554,EQTY.O0000
743033A4-5E8A-DF11-89DA-001C26EE1812,90616DD5-1159-DF11-B92C-00C09FC85DD6,91F1F7FA-9658-DF11-B94C-00C09FC85DD6,Eveready East Africa Ltd Ord.1.00,KE0000000588,EVRD.O0000
763033A4-5E8A-DF11-89DA-001C26EE1812,ACE95984-F7E4-E011-8DD5-F8BB536C7A63,91F1F7FA-9658-DF11-B94C-00C09FC85DD6,Kenya Re-Insurance Corporation Ltd Ord 2.50,KE0000000604,KNRE.O0000
773033A4-5E8A-DF11-89DA-001C26EE1812,88E27D9E-F7E4-E011-8DD5-F8BB536C7A63,91F1F7FA-9658-DF11-B94C-00C09FC85DD6,Safaricom Ltd Ord 0.05,KE1000001402,SCOM.O0000
783033A4-5E8A-DF11-89DA-001C26EE1812,20CACA08-1688-DF11-8794-00C09FC85DD6,91F1F7FA-9658-DF11-B94C-00C09FC85DD6,The Co-operative Bank of Kenya Ltd Ord 1.00,KE1000001568,COOP.O0000
793033A4-5E8A-DF11-89DA-001C26EE1812,90616DD5-1159-DF11-B92C-00C09FC85DD6,91F1F7FA-9658-DF11-B94C-00C09FC85DD6,Kenya Orchards Ltd Ord 5.00,KE0000000331,ORCH.O0000
D0742D15-1688-DF11-8794-00C09FC85DD6,E0798ED7-5B8A-DF11-89DA-001C26EE1812,91F1F7FA-9658-DF11-B94C-00C09FC85DD6,TPS Eastern Africa (Serena) Ltd Ord 1.00,KE0000000539,TPSE.O0000
E09AB166-9A5B-DF11-9E0E-00C09FC85DD6,506B1030-1759-DF11-B92C-00C09FC85DD6,91F1F7FA-9658-DF11-B94C-00C09FC85DD6,Rea Vipingo Plantations Ltd Ord 5.00,KE0000000422,REA.O0000
00E83D5F-FF5F-DF11-B84B-00C09FC85DD6,8099AA76-F7E4-E011-8DD5-F8BB536C7A63,91F1F7FA-9658-DF11-B94C-00C09FC85DD6,Athi River Mining Ord 5.00,KE0000000034,ARM.O0000
40F92D25-1759-DF11-B92C-00C09FC85DD6,88E27D9E-F7E4-E011-8DD5-F8BB536C7A63,91F1F7FA-9658-DF11-B94C-00C09FC85DD6,Access Kenya Group Ltd Ord. 1.00,KE0000000596,ACCS.O0000
70923BE2-4659-DF11-B92C-00C09FC85DD6,506B1030-1759-DF11-B92C-00C09FC85DD6,91F1F7FA-9658-DF11-B94C-00C09FC85DD6,Kakuzi Ord.5.00,KE0000000281,KUKZ.O0000
DF7CBCFC-9CED-E011-B55F-70F39528BBE7,C7C23F8B-F7E4-E011-8DD5-F8BB536C7A63,91F1F7FA-9658-DF11-B94C-00C09FC85DD6,Trans-Century Ltd Ord 0.50,KE2000002184,TCL.O0000
1279C1C9-DDD4-E011-BE4D-70F39528BBE7,ACE95984-F7E4-E011-8DD5-F8BB536C7A63,91F1F7FA-9658-DF11-B94C-00C09FC85DD6,British-American Investments Ord 0.10,KE2000002192,BRIT.O0000
B2250F73-5B87-E411-827B-9C2A7074F1C2,D24EB47D-F7E4-E011-8DD5-F8BB536C7A63,91F1F7FA-9658-DF11-B94C-00C09FC85DD6,Umeme Ltd Ord 0.50,KE2000005815,UMME.O0000
12673DA1-F5A2-E411-8288-9C2A7074F1C2,88E27D9E-F7E4-E011-8DD5-F8BB536C7A63,91F1F7FA-9658-DF11-B94C-00C09FC85DD6,Atlas Development and Support Services,KE4000004095,ADSS.O0000
9C741A9D-6CA5-E411-8289-9C2A7074F1C2,D24EB47D-F7E4-E011-8DD5-F8BB536C7A63,91F1F7FA-9658-DF11-B94C-00C09FC85DD6,Kenya Power & Lighting Ltd 4% Pref 20.00,KE4000001877,KPLC P 0004
AC9110D7-6CA5-E411-8289-9C2A7074F1C2,D24EB47D-F7E4-E011-8DD5-F8BB536C7A63,91F1F7FA-9658-DF11-B94C-00C09FC85DD6,Kenya Power & Lighting Ltd 7% Pref 20.00,KE4000002982,KPLC P 0007
64452311-73A5-E411-8289-9C2A7074F1C2,E0798ED7-5B8A-DF11-89DA-001C26EE1812,91F1F7FA-9658-DF11-B94C-00C09FC85DD6,Uchimi Rights Issue,KE0000XXX,UCHM R 0000
F935208F-B7BD-E411-829E-9C2A7074F1C2,E0798ED7-5B8A-DF11-89DA-001C26EE1812,91F1F7FA-9658-DF11-B94C-00C09FC85DD6,Deacons Ord. 1.00,KE0000000DEAC,DEAC.O0000
5CFA2487-A95B-E511-8306-9C2A7074F1C2,506B1030-1759-DF11-B92C-00C09FC85DD6,91F1F7FA-9658-DF11-B94C-00C09FC85DD6,TEST,TEST,TEST
A44C3D9A-C966-E511-8308-9C2A7074F1C2,38EA8C42-7475-E411-9465-E4115BDEE25B,91F1F7FA-9658-DF11-B94C-00C09FC85DD6,UNLISTED EQUITY - X,UEQX,UEQX
1DB48026-C6ED-E511-8348-B8CA3AE0B37C,88E27D9E-F7E4-E011-8DD5-F8BB536C7A63,91F1F7FA-9658-DF11-B94C-00C09FC85DD6,INNOVA PLC,KE00000000INV,INV
BE23E328-BDD3-E411-8286-E4115B0E7DE8,20CACA08-1688-DF11-8794-00C09FC85DD6,91F1F7FA-9658-DF11-B94C-00C09FC85DD6,Housing Finance Co.Kenya Ltd Rights,KE1000001451,HFCK R.O0000
BDF3B8F4-FB13-E511-A21A-E4115B0E7DE8,C7C23F8B-F7E4-E011-8DD5-F8BB536C7A63,91F1F7FA-9658-DF11-B94C-00C09FC85DD6,Kurwitu Ventures Ltd Ord 100.00GEMS,KE4000001216,KVL.O0000
5BEB764C-7475-E411-9465-E4115BDEE25B,38EA8C42-7475-E411-9465-E4115BDEE25B,91F1F7FA-9658-DF11-B94C-00C09FC85DD6,Nairobi Securities Exchange Ltd Ord 4.00 ,KE3000009674,NSE.O0000
F0D54E69-7475-E411-9465-E4115BDEE25B,F7DFFF26-FF2F-E311-9EAB-000C29D7DB13,91F1F7FA-9658-DF11-B94C-00C09FC85DD6,Flame Tree Group Holdings Ltd Ord 0.825,KE4000001323,FTGH.O0000
979AF572-FDE4-E011-8DD5-F8BB536C7A63,20CACA08-1688-DF11-8794-00C09FC85DD6,91F1F7FA-9658-DF11-B94C-00C09FC85DD6,CFC Stanbic Holdings Ltd ord.5.00,KE0000000091,CFC.O0000
